PBMC Sc_rna seq analysis
…
saveRDS(pbmc, file = "pbmc_tutorial.rds")

# find markers for every cluster compared to all remaining cells, report only the positive
# ones
pbmc.markers <- FindAllMarkers(pbmc, only.pos = TRUE)
pbmc.markers %>%
    group_by(cluster) %>%
    dplyr::filter(avg_log2FC > 1)

## # A tibble: 7,019 × 7
## # Groups:   cluster [9]
##        p_val avg_log2FC pct.1 pct.2 p_val_adj cluster gene     
##        <dbl>      <dbl> <dbl> <dbl>     <dbl> <fct>   <chr>    
##  1 3.75e-112       1.21 0.912 0.592 5.14e-108 0       LDHB     
##  2 9.57e- 88       2.40 0.447 0.108 1.31e- 83 0       CCR7     
##  3 1.15e- 76       1.06 0.845 0.406 1.58e- 72 0       CD3D     
##  4 1.12e- 54       1.04 0.731 0.4   1.54e- 50 0       CD3E     
##  5 1.35e- 51       2.14 0.342 0.103 1.86e- 47 0       LEF1     
##  6 1.94e- 47       1.20 0.629 0.359 2.66e- 43 0       NOSIP    
##  7 2.81e- 44       1.53 0.443 0.185 3.85e- 40 0       PIK3IP1  
##  8 6.27e- 43       1.99 0.33  0.112 8.60e- 39 0       PRKCQ-AS1
##  9 1.16e- 40       2.70 0.2   0.04  1.59e- 36 0       FHIT     
## 10 1.34e- 34       1.96 0.268 0.087 1.84e- 30 0       MAL      
## # ℹ 7,009 more rows
…
## [1] 1215

ligand_activities <- predict_ligand_activities(geneset = geneset_oi,
                                               background_expressed_genes = background_expressed_genes,
                                               ligand_target_matrix = ligand_target_matrix,
                                               potential_ligands = potential_ligands)

#ligand_activities <- ligand_activities %>% arrange(-aupr_corrected) %>% mutate(rank = rank(desc(aupr_corrected)))
ligand_activities <- ligand_activities %>%
  arrange(desc(aupr_corrected)) %>%
  mutate(rank = rank(-aupr_corrected))
ligand_activities

## # A tibble: 443 × 6
##    test_ligand auroc  aupr aupr_corrected pearson  rank
##    <chr>       <dbl> <dbl>          <dbl>   <dbl> <dbl>
##  1 SIRPG       0.540 0.356         0.0638  0.0351     1
##  2 UCN2        0.532 0.346         0.0534  0.0122     2
##  3 SIRPB2      0.533 0.346         0.0532  0.0364     3
##  4 CD47        0.532 0.345         0.0523  0.0295     4
##  5 CXCL9       0.525 0.343         0.0503  0.0806     5
##  6 CD40LG      0.532 0.343         0.0499  0.0275     6
##  7 HLA-G       0.526 0.341         0.0480  0.0772     7
##  8 LILRB4      0.524 0.341         0.0479  0.0295     8
##  9 SIGLEC7     0.533 0.340         0.0478  0.0276     9
## 10 FSTL5       0.524 0.340         0.0475  0.0555    10
## # ℹ 433 more rows
…
